…
data_sci[[3]][c(1, 2, 1, 3)]

[1] "garbage" "in"      "garbage" "out"   
```


f) 

```{r}
#| eval: FALSE

data_sci[[4]][c(9,8)]

# A tibble: 234 x 2
     hwy   cty
   <int> <int>
 1    29    18
 2    29    21
 3    31    20
 4    30    21
 5    26    16
 6    26    18
 7    27    18
 8    26    18
 9    25    16
10    28    20
# … with 224 more rows
```
…
